{
    "KPlugin": {
        "Description": "Compile or Make and parse error messages",
        "Description[az]": "Xəta ismarıclarını toplanması, hazırlanması və analizi",
        "Description[ca@valencia]": "Compila o construïx amb Make i analitza els missatges d'error",
        "Description[ca]": "Compila o construeix amb Make i analitza els missatges d'error",
        "Description[cs]": "Zkompilovat či sestavit a analyzovat chybová hlášení",
        "Description[de]": "Kompilieren oder Make aufrufen und Fehlermeldungen ausgeben",
        "Description[el]": "Μεταγλώττιση ή χρήση του make και ανάλυση μηνυμάτων σφάλματος",
        "Description[en_GB]": "Compile or Make and parse error messages",
        "Description[es]": "Compilar o Make y análisis de mensajes de error",
        "Description[eu]": "Konpilatu edo «Make» eta aztertu erroreen mezuak",
        "Description[fi]": "Käännä tai aja make ja jäsennä virheviestit",
        "Description[fr]": "Compile ou lance « make », puis analyse les messages d'erreurs",
        "Description[hu]": "Fordítás és a hibaüzenetek feldolgozása",
        "Description[ia]": "Compila o face e analysa messages de error",
        "Description[it]": "Compila o esegui make ed elabora i messaggi di errore",
        "Description[ko]": "컴파일, 메이크 실행 및 오류 메시지 해석",
        "Description[nl]": "Compileer of voer Make uit en analyseer foutmeldingen",
        "Description[pl]": "Kompiluj lub uruchom make i przeanalizuj komunikaty o błędach",
        "Description[pt]": "Compilar e processar as mensagens de erro",
        "Description[ru]": "Сборка и обработка сообщений об ошибках",
        "Description[sl]": "Prevedi ali izgradi in razčleni sporočila o napakah",
        "Description[sv]": "Kompilera eller bygg och tolka felmeddelanden",
        "Description[tr]": "Derle/Yap ve hata iletilerini ayrıştır",
        "Description[uk]": "Компілює або збирає і обробляє повідомлення про помилки",
        "Description[vi]": "Biên dịch hoặc make và phân tách các thông điệp lỗi",
        "Description[x-test]": "xxCompile or Make and parse error messagesxx",
        "Description[zh_CN]": "执行编译(Compile/Make)并分析错误消息",
        "Name": "Build Plugin",
        "Name[az]": "Yığılma qoşması",
        "Name[ca@valencia]": "Connector de construcció",
        "Name[ca]": "Connector de construcció",
        "Name[cs]": "Modul pro překlad",
        "Name[de]": "Erstellen-Modul",
        "Name[el]": "Πρόσθετο κατασκευής",
        "Name[en_GB]": "Build Plugin",
        "Name[es]": "Complemento de compilación",
        "Name[eu]": "Eraikitzeko plugina",
        "Name[fi]": "Koostamisliitännäinen",
        "Name[fr]": "Module externe de compilation",
        "Name[hu]": "Összeállító bővítmény",
        "Name[ia]": " Plug-in Build (Plug-in de construer)",
        "Name[it]": "Estensione di compilazione",
        "Name[ko]": "빌드 플러그인",
        "Name[my]": "တည်ဆောက်မှု ပလပ်ဂင်",
        "Name[nl]": "Bouwplug-in",
        "Name[pl]": "Wtyczka budowania",
        "Name[pt]": "'Plugin' de Compilação",
        "Name[pt_BR]": "Plugin de compilação",
        "Name[ru]": "Сборка",
        "Name[sl]": "Vtičnik izgradnje",
        "Name[sv]": "Bygginsticksprogram",
        "Name[tr]": "Yapım Eklentisi",
        "Name[uk]": "Додаток для збирання",
        "Name[vi]": "Phần cài cắm \"xây\"",
        "Name[x-test]": "xxBuild Pluginxx",
        "Name[zh_CN]": "构建插件",
        "ServiceTypes": [
            "KTextEditor/Plugin"
        ]
    }
}
